…
# Identify outliers in the second round based on >0.4 threshold for telomeres
Plate1$Flag_outlier_2 <- ifelse(Plate1$Target == "telomeres" & Plate1$Diff_AVG_Cq_2 > 0.4, "yes", "no")

# Report and examine high Cq samples in the second round for telomeres
HighCq_2 <- Plate1[Plate1$Target == "telomeres" & Plate1$Diff_AVG_Cq_2 > 0.4, c("Well", "Sample", "Fluor", "Diff_AVG_Cq_2")]
print(paste("Number of rows with high Cq in the second round for telomeres:", nrow(HighCq_2)))
```

    ## [1] "Number of rows with high Cq in the second round for telomeres: 52"

``` r
print(HighCq_2)
```

    ## # A tibble: 52 × 4
    ##    Well  Sample Fluor Diff_AVG_Cq_2
    ##    <chr> <chr>  <chr>         <dbl>
    ##  1 <NA>  <NA>   <NA>         NA    
    ##  2 <NA>  <NA>   <NA>         NA    
    ##  3 <NA>  <NA>   <NA>         NA    
    ##  4 <NA>  <NA>   <NA>         NA    
    ##  5 <NA>  <NA>   <NA>         NA    
    ##  6 <NA>  <NA>   <NA>         NA    
    ##  7 A06   4775 B SYBR          0.405
    ##  8 A07   4802 B SYBR          0.419
    ##  9 A08   4802 B SYBR          0.897
    ## 10 A09   4802 B SYBR          1.32 
    ## # ℹ 42 more rows
…
# Now subset_dfs is a list where each element is a dataframe containing rows for each unique ‘Target’ value

``` r
Plate1_SCNAG<-print(subset_dfs[["scnag"]])
```

    ## # A tibble: 72 × 23
    ##    X     Well  Fluor Target Content Sample Biological.Set.Name    Cq Cq.Mean
    ##    <lgl> <chr> <chr> <chr>  <chr>   <chr>  <lgl>               <dbl>   <dbl>
    ##  1 NA    A04   VIC   scnag  Unkn    4775 B NA                   23.5    23.5
    ##  2 NA    A05   VIC   scnag  Unkn    4775 B NA                   23.4    23.4
    ##  3 NA    A06   VIC   scnag  Unkn    4775 B NA                   23.5    23.5
    ##  4 NA    A07   VIC   scnag  Unkn    4802 B NA                   22.9    22.9
    ##  5 NA    A08   VIC   scnag  Unkn    4802 B NA                   22.8    22.8
    ##  6 NA    A09   VIC   scnag  Unkn    4802 B NA                   22.7    22.7
    ##  7 NA    A10   VIC   scnag  Unkn    4625 B NA                   22.0    22.0
    ##  8 NA    A11   VIC   scnag  Unkn    4625 B NA                   21.3    21.3
    ##  9 NA    A12   VIC   scnag  Unkn    4625 B NA                   21.3    21.3
    ## 10 NA    B04   VIC   scnag  Unkn    4535 B NA                   24.0    24.0
    ## # ℹ 62 more rows
    ## # ℹ 14 more variables: Cq.Std..Dev <dbl>, Starting.Quantity..SQ. <dbl>,
    ## #   Log.Starting.Quantity <dbl>, SQ.Mean <dbl>, SQ.Std..Dev <int>,
    ## #   Set.Point <int>, Well.Note <lgl>, PlateID <chr>, Diff_AVG_Cq <dbl>,
    ## #   Flag_outlier <chr>, Cq.Mean2 <dbl>, Sq.Mean2 <dbl>, Diff_AVG_Cq_2 <dbl>,
    ## #   Flag_outlier_2 <chr>

``` r
Plate1_SCNAG<-Plate1_SCNAG[ ,c("PlateID", "Well", "Sample", "Target", "Cq", "Cq.Mean",  "Flag_outlier", "SQ.Mean")]
Plate1_SCNAG <- Plate1_SCNAG %>% 
  rename(Target_SCNAG = Target, Cq_SCNAG = Cq, Cq.Mean_SCNAG = Cq.Mean, Flag_outlier_SCNAG=Flag_outlier, SQ.Mean_SCNAG=SQ.Mean)

Plate1_mtDNA<-print(subset_dfs[["mtdna"]])
```

    ## # A tibble: 72 × 23
    ##    X     Well  Fluor Target Content Sample Biological.Set.Name    Cq Cq.Mean
    ##    <lgl> <chr> <chr> <chr>  <chr>   <chr>  <lgl>               <dbl>   <dbl>
    ##  1 NA    A04   FAM   mtdna  Unkn    4775 B NA                   26.1    26.1
    ##  2 NA    A05   FAM   mtdna  Unkn    4775 B NA                   26.1    26.1
    ##  3 NA    A06   FAM   mtdna  Unkn    4775 B NA                   26.0    26.0
    ##  4 NA    A07   FAM   mtdna  Unkn    4802 B NA                   25.8    25.8
    ##  5 NA    A08   FAM   mtdna  Unkn    4802 B NA                   25.7    25.7
    ##  6 NA    A09   FAM   mtdna  Unkn    4802 B NA                   26.0    26.0
    ##  7 NA    A10   FAM   mtdna  Unkn    4625 B NA                   26.5    26.5
    ##  8 NA    A11   FAM   mtdna  Unkn    4625 B NA                   25.5    25.5
    ##  9 NA    A12   FAM   mtdna  Unkn    4625 B NA                   25.9    25.9
    ## 10 NA    B04   FAM   mtdna  Unkn    4535 B NA                   26.1    26.1
    ## # ℹ 62 more rows
    ## # ℹ 14 more variables: Cq.Std..Dev <dbl>, Starting.Quantity..SQ. <dbl>,
    ## #   Log.Starting.Quantity <dbl>, SQ.Mean <dbl>, SQ.Std..Dev <int>,
    ## #   Set.Point <int>, Well.Note <lgl>, PlateID <chr>, Diff_AVG_Cq <dbl>,
    ## #   Flag_outlier <chr>, Cq.Mean2 <dbl>, Sq.Mean2 <dbl>, Diff_AVG_Cq_2 <dbl>,
    ## #   Flag_outlier_2 <chr>

``` r
Plate1_mtDNA<-Plate1_mtDNA[ ,c("PlateID", "Well", "Sample", "Target", "Cq", "Cq.Mean", "Flag_outlier", "SQ.Mean")]
Plate1_mtDNA <- Plate1_mtDNA %>% 
  rename(Target_mtDNA = Target, Cq_mtDNA = Cq, Cq.Mean_mtDNA = Cq.Mean, Flag_outlier_mtDNA = Flag_outlier, SQ.Mean_mtDNA = SQ.Mean)

Plate1_Telomeres<-print(subset_dfs[["telomeres"]])
```

    ## # A tibble: 32 × 23
    ##    X     Well  Fluor Target    Content Sample Biological.Set.Name    Cq Cq.Mean
    ##    <lgl> <chr> <chr> <chr>     <chr>   <chr>  <lgl>               <dbl>   <dbl>
    ##  1 NA    A04   SYBR  telomeres Unkn    4775 B NA                   17.4    17.4
    ##  2 NA    A05   SYBR  telomeres Unkn    4775 B NA                   17.4    17.4
    ##  3 NA    A12   SYBR  telomeres Unkn    4625 B NA                   17.2    17.2
    ##  4 NA    B05   SYBR  telomeres Unkn    4535 B NA                   19.1    19.1
    ##  5 NA    B06   SYBR  telomeres Unkn    4535 B NA                   18.9    18.9
    ##  6 NA    B07   SYBR  telomeres Unkn    4739 B NA                   19.2    19.2
    ##  7 NA    B11   SYBR  telomeres Unkn    4758 B NA                   19.5    19.5
    ##  8 NA    C05   SYBR  telomeres Unkn    4531 B NA                   18.1    18.1
    ##  9 NA    C07   SYBR  telomeres Unkn    4817 B NA                   18.7    18.7
    ## 10 NA    C11   SYBR  telomeres Unkn    4817 D NA                   19.1    19.1
    ## # ℹ 22 more rows
    ## # ℹ 14 more variables: Cq.Std..Dev <dbl>, Starting.Quantity..SQ. <dbl>,
    ## #   Log.Starting.Quantity <dbl>, SQ.Mean <dbl>, SQ.Std..Dev <int>,
    ## #   Set.Point <int>, Well.Note <lgl>, PlateID <chr>, Diff_AVG_Cq <dbl>,
    ## #   Flag_outlier <chr>, Cq.Mean2 <dbl>, Sq.Mean2 <dbl>, Diff_AVG_Cq_2 <dbl>,
    ## #   Flag_outlier_2 <chr>
…
