…
# Now subset_dfs is a list where each element is a dataframe containing rows for each unique ‘Target’ value

``` r
Plate1_SCNAG<-print(subset_dfs[["scnag"]])
```

    ## # A tibble: 48 × 23
    ##    X     Well  Fluor Target Content Sample Biological.Set.Name    Cq Cq.Mean
    ##    <lgl> <chr> <chr> <chr>  <chr>   <chr>  <lgl>               <dbl>   <dbl>
    ##  1 NA    A04   VIC   scnag  Unkn-01 4775B  NA                   23.8    23.8
    ##  2 NA    A05   VIC   scnag  Unkn-01 4775B  NA                   23.9    23.8
    ##  3 NA    A06   VIC   scnag  Unkn-01 4775B  NA                   23.8    23.8
    ##  4 NA    A07   VIC   scnag  Unkn-09 4802B  NA                   23.8    23.7
    ##  5 NA    A08   VIC   scnag  Unkn-09 4802B  NA                   23.8    23.7
    ##  6 NA    A09   VIC   scnag  Unkn-09 4802B  NA                   23.6    23.7
    ##  7 NA    B04   VIC   scnag  Unkn-02 4792B  NA                   24.6    24.7
    ##  8 NA    B05   VIC   scnag  Unkn-02 4792B  NA                   24.6    24.7
    ##  9 NA    B06   VIC   scnag  Unkn-02 4792B  NA                   24.8    24.7
    ## 10 NA    B07   VIC   scnag  Unkn-10 4739B  NA                   25.0    25.0
    ## # ℹ 38 more rows
    ## # ℹ 14 more variables: Cq.Std..Dev <dbl>, Starting.Quantity..SQ. <dbl>,
    ## #   Log.Starting.Quantity <dbl>, SQ.Mean <dbl>, SQ.Std..Dev <dbl>,
    ## #   Set.Point <int>, Well.Note <lgl>, PlateID <chr>, Diff_AVG_Cq <dbl>,
    ## #   Flag_outlier <chr>, Cq.Mean2 <dbl>, SQ.Mean2 <dbl>, Diff_AVG_Cq_2 <dbl>,
    ## #   Flag_outlier_2 <chr>

``` r
Plate1_SCNAG<-Plate1_SCNAG[ ,c("PlateID", "Well", "Sample", "Target", "Cq", "Cq.Mean",  "Flag_outlier", "SQ.Mean")]
Plate1_SCNAG <- Plate1_SCNAG %>% 
  rename(Target_SCNAG = Target, Cq_SCNAG = Cq, Cq.Mean_SCNAG = Cq.Mean, Flag_outlier_SCNAG=Flag_outlier, SQ.Mean_SCNAG=SQ.Mean)

Plate1_mtDNA<-print(subset_dfs[["mtdna"]])
```

    ## # A tibble: 48 × 23
    ##    X     Well  Fluor Target Content Sample Biological.Set.Name    Cq Cq.Mean
    ##    <lgl> <chr> <chr> <chr>  <chr>   <chr>  <lgl>               <dbl>   <dbl>
    ##  1 NA    A04   FAM   mtdna  Unkn-01 4775B  NA                   27.3    27.4
    ##  2 NA    A05   FAM   mtdna  Unkn-01 4775B  NA                   27.5    27.4
    ##  3 NA    A06   FAM   mtdna  Unkn-01 4775B  NA                   27.3    27.4
    ##  4 NA    A07   FAM   mtdna  Unkn-09 4802B  NA                   26.2    26.0
    ##  5 NA    A08   FAM   mtdna  Unkn-09 4802B  NA                   26.2    26.0
    ##  6 NA    A09   FAM   mtdna  Unkn-09 4802B  NA                   25.6    26.0
    ##  7 NA    B04   FAM   mtdna  Unkn-02 4792B  NA                   26.2    26.3
    ##  8 NA    B05   FAM   mtdna  Unkn-02 4792B  NA                   26.1    26.3
    ##  9 NA    B06   FAM   mtdna  Unkn-02 4792B  NA                   26.4    26.3
    ## 10 NA    B07   FAM   mtdna  Unkn-10 4739B  NA                   26.5    26.6
    ## # ℹ 38 more rows
    ## # ℹ 14 more variables: Cq.Std..Dev <dbl>, Starting.Quantity..SQ. <dbl>,
    ## #   Log.Starting.Quantity <dbl>, SQ.Mean <dbl>, SQ.Std..Dev <dbl>,
    ## #   Set.Point <int>, Well.Note <lgl>, PlateID <chr>, Diff_AVG_Cq <dbl>,
    ## #   Flag_outlier <chr>, Cq.Mean2 <dbl>, SQ.Mean2 <dbl>, Diff_AVG_Cq_2 <dbl>,
    ## #   Flag_outlier_2 <chr>

``` r
Plate1_mtDNA<-Plate1_mtDNA[ ,c("PlateID", "Well", "Sample", "Target", "Cq", "Cq.Mean", "Flag_outlier", "SQ.Mean")]
Plate1_mtDNA <- Plate1_mtDNA %>% 
  rename(Target_mtDNA = Target, Cq_mtDNA = Cq, Cq.Mean_mtDNA = Cq.Mean, Flag_outlier_mtDNA = Flag_outlier, SQ.Mean_mtDNA = SQ.Mean)

Plate1_Telomeres<-print(subset_dfs[["telomeres"]])
```

    ## # A tibble: 44 × 23
    ##    X     Well  Fluor Target    Content Sample Biological.Set.Name    Cq Cq.Mean
    ##    <lgl> <chr> <chr> <chr>     <chr>   <chr>  <lgl>               <dbl>   <dbl>
    ##  1 NA    A04   SYBR  telomeres Unkn-01 4775B  NA                   15.3    15.3
    ##  2 NA    A05   SYBR  telomeres Unkn-01 4775B  NA                   15.2    15.3
    ##  3 NA    A06   SYBR  telomeres Unkn-01 4775B  NA                   15.3    15.3
    ##  4 NA    A07   SYBR  telomeres Unkn-09 4802B  NA                   15.8    15.8
    ##  5 NA    A08   SYBR  telomeres Unkn-09 4802B  NA                   15.4    15.8
    ##  6 NA    A09   SYBR  telomeres Unkn-09 4802B  NA                   16.1    15.8
    ##  7 NA    B04   SYBR  telomeres Unkn-02 4792B  NA                   15.5    15.7
    ##  8 NA    B05   SYBR  telomeres Unkn-02 4792B  NA                   15.8    15.7
    ##  9 NA    B06   SYBR  telomeres Unkn-02 4792B  NA                   15.7    15.7
    ## 10 NA    B07   SYBR  telomeres Unkn-10 4739B  NA                   15.4    15.4
    ## # ℹ 34 more rows
    ## # ℹ 14 more variables: Cq.Std..Dev <dbl>, Starting.Quantity..SQ. <dbl>,
    ## #   Log.Starting.Quantity <dbl>, SQ.Mean <dbl>, SQ.Std..Dev <dbl>,
    ## #   Set.Point <int>, Well.Note <lgl>, PlateID <chr>, Diff_AVG_Cq <dbl>,
    ## #   Flag_outlier <chr>, Cq.Mean2 <dbl>, SQ.Mean2 <dbl>, Diff_AVG_Cq_2 <dbl>,
    ## #   Flag_outlier_2 <chr>
…
